{
  "project_info": {
    "project_number": "442502621796",
    "firebase_url": "https://fanclastic-3d-designer.firebaseio.com",
    "project_id": "fanclastic-3d-designer",
    "storage_bucket": "fanclastic-3d-designer.appspot.com"
  },
  "client": [
    {
      "client_info": {
        "mobilesdk_app_id": "1:442502621796:android:8b6a7781a5548fae",
        "android_client_info": {
          "package_name": "ru.fanclastic.Fanclastic3DDesigner"
        }
      },
      "oauth_client": [
        {
          "client_id": "442502621796-8u45rra5m4if071u1hrv0rgdir8qaipe.apps.googleusercontent.com",
          "client_type": 3
        }
      ],
      "api_key": [
        {
          "current_key": "AIzaSyCjakxLbxxq9ooysCF_c6waBp4KRiSRBVE"
        }
      ],
      "services": {
        "appinvite_service": {
          "other_platform_oauth_client": [
            {
              "client_id": "442502621796-8u45rra5m4if071u1hrv0rgdir8qaipe.apps.googleusercontent.com",
              "client_type": 3
            },
            {
              "client_id": "442502621796-68m4um3g7fhlp61fk33p257s0dcu1p2u.apps.googleusercontent.com",
              "client_type": 2,
              "ios_info": {
                "bundle_id": "ru.fanclastic.Fanclastic3DDesigner"
              }
            }
          ]
        }
      }
    }
  ],
  "configuration_version": "1"
}